﻿<?xml version="1.0" encoding="UTF-8"?>
<TestRun id="ebf33eca-db45-4d6a-8dfe-5463e02a3829" name="XDHSG3S@WXPFPWGLH1 2010-04-22 15:43:32" runUser="CORPDMN\XDHSG3S" xmlns="http://microsoft.com/schemas/VisualStudio/TeamTest/2010">
  <TestSettings name="Local" id="f512af84-f536-48f5-b464-1ea11ababed4">
    <Description>These are default test settings for a local test run.</Description>
    <Deployment enabled="false" runDeploymentRoot="XDHSG3S_WXPFPWGLH1 2010-04-22 15_43_32">
      <DeploymentItem filename="G:\linq2stackoverflow\LINQToStackOverflow\bin\Debug\LINQToStackOverflow.dll" />
      <DeploymentItem filename="C:\Documents and Settings\XDHSG3S.CORPDMN\Desktop\Downloads\JSON.NET\Bin\DotNet20\Newtonsoft.Json.Net20.dll" />
    </Deployment>
    <Execution>
      <TestTypeSpecific />
      <AgentRule name="Execution Agents">
      </AgentRule>
    </Execution>
  </TestSettings>
  <Times creation="2010-04-22T15:43:32.7535314-04:00" queuing="2010-04-22T15:43:32.8160322-04:00" start="2010-04-22T15:43:32.8160322-04:00" finish="2010-04-22T15:43:33.6285426-04:00" />
  <ResultSummary outcome="Completed">
    <Counters total="10" executed="10" passed="10" error="0" failed="0" timeout="0" aborted="0" inconclusive="0" passedButRunAborted="0" notRunnable="0" notExecuted="0" disconnected="0" warning="0" completed="0" inProgress="0" pending="0" />
  </ResultSummary>
  <TestDefinitions>
    <UnitTest name="BuildOwnerURLTest" storage="g:\linq2stackoverflow\linqtostackoverflow.test\bin\debug\linqtostackoverflow.test.dll" id="ff16fa93-924a-62c9-468c-b6bcf2389312">
      <Execution id="8bc1a152-591c-4161-9651-557395a355bb" />
      <TestMethod codeBase="G:/linq2stackoverflow/LINQToStackOverflow.Test/bin/Debug/LINQToStackOverflow.Test.DLL" adapterTypeName="Microsoft.VisualStudio.TestTools.TestTypes.Unit.UnitTestAdapter, Microsoft.VisualStudio.QualityTools.Tips.UnitTest.Adapter, Version=10.0.0.0, Culture=neutral, PublicKeyToken=b03f5f7f11d50a3a" className="LINQToStackOverflow.Test.CommentRequestProcessorTest, LINQToStackOverflow.Test, Version=1.0.0.0, Culture=neutral, PublicKeyToken=null" name="BuildOwnerURLTest" />
    </UnitTest>
    <UnitTest name="NullParametersTest" storage="g:\linq2stackoverflow\linqtostackoverflow.test\bin\debug\linqtostackoverflow.test.dll" id="552d8d2a-dc85-e798-cda8-24a9de9e0296">
      <Execution id="41972f8a-39e0-46f7-a540-5ba3b084f98c" />
      <TestMethod codeBase="G:/linq2stackoverflow/LINQToStackOverflow.Test/bin/Debug/LINQToStackOverflow.Test.DLL" adapterTypeName="Microsoft.VisualStudio.TestTools.TestTypes.Unit.UnitTestAdapter, Microsoft.VisualStudio.QualityTools.Tips.UnitTest.Adapter, Version=10.0.0.0, Culture=neutral, PublicKeyToken=b03f5f7f11d50a3a" className="LINQToStackOverflow.Test.CommentRequestProcessorTest, LINQToStackOverflow.Test, Version=1.0.0.0, Culture=neutral, PublicKeyToken=null" name="NullParametersTest" />
    </UnitTest>
    <UnitTest name="BuildSortedURLTest" storage="g:\linq2stackoverflow\linqtostackoverflow.test\bin\debug\linqtostackoverflow.test.dll" id="cb0b912a-2131-bcbf-92b2-15ef50a50b0b">
      <Execution id="65b8383d-31d5-45f7-b65a-817d6aaef617" />
      <TestMethod codeBase="G:/linq2stackoverflow/LINQToStackOverflow.Test/bin/Debug/LINQToStackOverflow.Test.DLL" adapterTypeName="Microsoft.VisualStudio.TestTools.TestTypes.Unit.UnitTestAdapter, Microsoft.VisualStudio.QualityTools.Tips.UnitTest.Adapter, Version=10.0.0.0, Culture=neutral, PublicKeyToken=b03f5f7f11d50a3a" className="LINQToStackOverflow.Test.CommentRequestProcessorTest, LINQToStackOverflow.Test, Version=1.0.0.0, Culture=neutral, PublicKeyToken=null" name="BuildSortedURLTest" />
    </UnitTest>
    <UnitTest name="BuildPagedURLTest" storage="g:\linq2stackoverflow\linqtostackoverflow.test\bin\debug\linqtostackoverflow.test.dll" id="2ba582ff-9359-e22d-f8ea-c224c5812966">
      <Execution id="82bbb2ff-7111-4554-ac89-cfe7d9d70fac" />
      <TestMethod codeBase="G:/linq2stackoverflow/LINQToStackOverflow.Test/bin/Debug/LINQToStackOverflow.Test.DLL" adapterTypeName="Microsoft.VisualStudio.TestTools.TestTypes.Unit.UnitTestAdapter, Microsoft.VisualStudio.QualityTools.Tips.UnitTest.Adapter, Version=10.0.0.0, Culture=neutral, PublicKeyToken=b03f5f7f11d50a3a" className="LINQToStackOverflow.Test.CommentRequestProcessorTest, LINQToStackOverflow.Test, Version=1.0.0.0, Culture=neutral, PublicKeyToken=null" name="BuildPagedURLTest" />
    </UnitTest>
    <UnitTest name="BuildBaseURLTest" storage="g:\linq2stackoverflow\linqtostackoverflow.test\bin\debug\linqtostackoverflow.test.dll" id="fcdd9147-68b0-d2c0-e458-2756a9aeba2a">
      <Execution id="83055652-d66b-4da5-b500-6bf359b770e1" />
      <TestMethod codeBase="G:/linq2stackoverflow/LINQToStackOverflow.Test/bin/Debug/LINQToStackOverflow.Test.DLL" adapterTypeName="Microsoft.VisualStudio.TestTools.TestTypes.Unit.UnitTestAdapter, Microsoft.VisualStudio.QualityTools.Tips.UnitTest.Adapter, Version=10.0.0.0, Culture=neutral, PublicKeyToken=b03f5f7f11d50a3a" className="LINQToStackOverflow.Test.CommentRequestProcessorTest, LINQToStackOverflow.Test, Version=1.0.0.0, Culture=neutral, PublicKeyToken=null" name="BuildBaseURLTest" />
    </UnitTest>
    <UnitTest name="GetParametersTest" storage="g:\linq2stackoverflow\linqtostackoverflow.test\bin\debug\linqtostackoverflow.test.dll" id="8b957deb-fdc6-6c49-e41e-efed14551038">
      <Execution id="2e90e63a-d0c6-4284-b23d-fc9280df432d" />
      <TestMethod codeBase="G:/linq2stackoverflow/LINQToStackOverflow.Test/bin/Debug/LINQToStackOverflow.Test.DLL" adapterTypeName="Microsoft.VisualStudio.TestTools.TestTypes.Unit.UnitTestAdapter, Microsoft.VisualStudio.QualityTools.Tips.UnitTest.Adapter, Version=10.0.0.0, Culture=neutral, PublicKeyToken=b03f5f7f11d50a3a" className="LINQToStackOverflow.Test.CommentRequestProcessorTest, LINQToStackOverflow.Test, Version=1.0.0.0, Culture=neutral, PublicKeyToken=null" name="GetParametersTest" />
    </UnitTest>
    <UnitTest name="BuildDateRangeURLTest" storage="g:\linq2stackoverflow\linqtostackoverflow.test\bin\debug\linqtostackoverflow.test.dll" id="6cfe3ee6-6688-1c1b-0280-da472351d99c">
      <Execution id="1986d882-69f9-438b-ad69-3f0e8250d09d" />
      <TestMethod codeBase="G:/linq2stackoverflow/LINQToStackOverflow.Test/bin/Debug/LINQToStackOverflow.Test.DLL" adapterTypeName="Microsoft.VisualStudio.TestTools.TestTypes.Unit.UnitTestAdapter, Microsoft.VisualStudio.QualityTools.Tips.UnitTest.Adapter, Version=10.0.0.0, Culture=neutral, PublicKeyToken=b03f5f7f11d50a3a" className="LINQToStackOverflow.Test.CommentRequestProcessorTest, LINQToStackOverflow.Test, Version=1.0.0.0, Culture=neutral, PublicKeyToken=null" name="BuildDateRangeURLTest" />
    </UnitTest>
    <UnitTest name="BuildAscendingOrderedURLTest" storage="g:\linq2stackoverflow\linqtostackoverflow.test\bin\debug\linqtostackoverflow.test.dll" id="ff922025-2404-9eaa-dba3-a1d47b5e2d10">
      <Execution id="380b3d8a-7f24-4e88-bdb2-d695b7484c49" />
      <TestMethod codeBase="G:/linq2stackoverflow/LINQToStackOverflow.Test/bin/Debug/LINQToStackOverflow.Test.DLL" adapterTypeName="Microsoft.VisualStudio.TestTools.TestTypes.Unit.UnitTestAdapter, Microsoft.VisualStudio.QualityTools.Tips.UnitTest.Adapter, Version=10.0.0.0, Culture=neutral, PublicKeyToken=b03f5f7f11d50a3a" className="LINQToStackOverflow.Test.CommentRequestProcessorTest, LINQToStackOverflow.Test, Version=1.0.0.0, Culture=neutral, PublicKeyToken=null" name="BuildAscendingOrderedURLTest" />
    </UnitTest>
    <UnitTest name="ProcessResultsForInvalidValueTest" storage="g:\linq2stackoverflow\linqtostackoverflow.test\bin\debug\linqtostackoverflow.test.dll" id="5f759e25-2f9c-1e7b-2c26-004669feee16">
      <Execution id="76117c83-2df1-4407-bfc7-ae72a38f31f7" />
      <TestMethod codeBase="G:/linq2stackoverflow/LINQToStackOverflow.Test/bin/Debug/LINQToStackOverflow.Test.DLL" adapterTypeName="Microsoft.VisualStudio.TestTools.TestTypes.Unit.UnitTestAdapter, Microsoft.VisualStudio.QualityTools.Tips.UnitTest.Adapter, Version=10.0.0.0, Culture=neutral, PublicKeyToken=b03f5f7f11d50a3a" className="LINQToStackOverflow.Test.CommentRequestProcessorTest, LINQToStackOverflow.Test, Version=1.0.0.0, Culture=neutral, PublicKeyToken=null" name="ProcessResultsForInvalidValueTest" />
    </UnitTest>
    <UnitTest name="BuildDescendingOrderedURLTest" storage="g:\linq2stackoverflow\linqtostackoverflow.test\bin\debug\linqtostackoverflow.test.dll" id="f8b9b16e-aeba-77c4-59dc-3137199c2ea8">
      <Execution id="0b011ba1-e8bf-4208-b0ee-7351f74dd881" />
      <TestMethod codeBase="G:/linq2stackoverflow/LINQToStackOverflow.Test/bin/Debug/LINQToStackOverflow.Test.DLL" adapterTypeName="Microsoft.VisualStudio.TestTools.TestTypes.Unit.UnitTestAdapter, Microsoft.VisualStudio.QualityTools.Tips.UnitTest.Adapter, Version=10.0.0.0, Culture=neutral, PublicKeyToken=b03f5f7f11d50a3a" className="LINQToStackOverflow.Test.CommentRequestProcessorTest, LINQToStackOverflow.Test, Version=1.0.0.0, Culture=neutral, PublicKeyToken=null" name="BuildDescendingOrderedURLTest" />
    </UnitTest>
  </TestDefinitions>
  <TestLists>
    <TestList name="CommentTests" id="46d33d6b-0426-4f3d-b8e7-7fe5652feac5" parentListId="ff6a907d-cc2e-4b81-b878-a28e9d67f5cb">
      <TestLinks>
        <TestLink id="ff16fa93-924a-62c9-468c-b6bcf2389312" name="BuildOwnerURLTest" storage="g:\linq2stackoverflow\linqtostackoverflow.test\bin\debug\linqtostackoverflow.test.dll" type="Microsoft.VisualStudio.TestTools.TestTypes.Unit.UnitTestElement, Microsoft.VisualStudio.QualityTools.Tips.UnitTest.ObjectModel, Version=10.0.0.0, Culture=neutral, PublicKeyToken=b03f5f7f11d50a3a" />
        <TestLink id="552d8d2a-dc85-e798-cda8-24a9de9e0296" name="NullParametersTest" storage="g:\linq2stackoverflow\linqtostackoverflow.test\bin\debug\linqtostackoverflow.test.dll" type="Microsoft.VisualStudio.TestTools.TestTypes.Unit.UnitTestElement, Microsoft.VisualStudio.QualityTools.Tips.UnitTest.ObjectModel, Version=10.0.0.0, Culture=neutral, PublicKeyToken=b03f5f7f11d50a3a" />
        <TestLink id="cb0b912a-2131-bcbf-92b2-15ef50a50b0b" name="BuildSortedURLTest" storage="g:\linq2stackoverflow\linqtostackoverflow.test\bin\debug\linqtostackoverflow.test.dll" type="Microsoft.VisualStudio.TestTools.TestTypes.Unit.UnitTestElement, Microsoft.VisualStudio.QualityTools.Tips.UnitTest.ObjectModel, Version=10.0.0.0, Culture=neutral, PublicKeyToken=b03f5f7f11d50a3a" />
        <TestLink id="2ba582ff-9359-e22d-f8ea-c224c5812966" name="BuildPagedURLTest" storage="g:\linq2stackoverflow\linqtostackoverflow.test\bin\debug\linqtostackoverflow.test.dll" type="Microsoft.VisualStudio.TestTools.TestTypes.Unit.UnitTestElement, Microsoft.VisualStudio.QualityTools.Tips.UnitTest.ObjectModel, Version=10.0.0.0, Culture=neutral, PublicKeyToken=b03f5f7f11d50a3a" />
        <TestLink id="ff922025-2404-9eaa-dba3-a1d47b5e2d10" name="BuildAscendingOrderedURLTest" storage="g:\linq2stackoverflow\linqtostackoverflow.test\bin\debug\linqtostackoverflow.test.dll" type="Microsoft.VisualStudio.TestTools.TestTypes.Unit.UnitTestElement, Microsoft.VisualStudio.QualityTools.Tips.UnitTest.ObjectModel, Version=10.0.0.0, Culture=neutral, PublicKeyToken=b03f5f7f11d50a3a" />
        <TestLink id="fcdd9147-68b0-d2c0-e458-2756a9aeba2a" name="BuildBaseURLTest" storage="g:\linq2stackoverflow\linqtostackoverflow.test\bin\debug\linqtostackoverflow.test.dll" type="Microsoft.VisualStudio.TestTools.TestTypes.Unit.UnitTestElement, Microsoft.VisualStudio.QualityTools.Tips.UnitTest.ObjectModel, Version=10.0.0.0, Culture=neutral, PublicKeyToken=b03f5f7f11d50a3a" />
        <TestLink id="6cfe3ee6-6688-1c1b-0280-da472351d99c" name="BuildDateRangeURLTest" storage="g:\linq2stackoverflow\linqtostackoverflow.test\bin\debug\linqtostackoverflow.test.dll" type="Microsoft.VisualStudio.TestTools.TestTypes.Unit.UnitTestElement, Microsoft.VisualStudio.QualityTools.Tips.UnitTest.ObjectModel, Version=10.0.0.0, Culture=neutral, PublicKeyToken=b03f5f7f11d50a3a" />
        <TestLink id="8b957deb-fdc6-6c49-e41e-efed14551038" name="GetParametersTest" storage="g:\linq2stackoverflow\linqtostackoverflow.test\bin\debug\linqtostackoverflow.test.dll" type="Microsoft.VisualStudio.TestTools.TestTypes.Unit.UnitTestElement, Microsoft.VisualStudio.QualityTools.Tips.UnitTest.ObjectModel, Version=10.0.0.0, Culture=neutral, PublicKeyToken=b03f5f7f11d50a3a" />
        <TestLink id="5f759e25-2f9c-1e7b-2c26-004669feee16" name="ProcessResultsForInvalidValueTest" storage="g:\linq2stackoverflow\linqtostackoverflow.test\bin\debug\linqtostackoverflow.test.dll" type="Microsoft.VisualStudio.TestTools.TestTypes.Unit.UnitTestElement, Microsoft.VisualStudio.QualityTools.Tips.UnitTest.ObjectModel, Version=10.0.0.0, Culture=neutral, PublicKeyToken=b03f5f7f11d50a3a" />
        <TestLink id="f8b9b16e-aeba-77c4-59dc-3137199c2ea8" name="BuildDescendingOrderedURLTest" storage="g:\linq2stackoverflow\linqtostackoverflow.test\bin\debug\linqtostackoverflow.test.dll" type="Microsoft.VisualStudio.TestTools.TestTypes.Unit.UnitTestElement, Microsoft.VisualStudio.QualityTools.Tips.UnitTest.ObjectModel, Version=10.0.0.0, Culture=neutral, PublicKeyToken=b03f5f7f11d50a3a" />
      </TestLinks>
    </TestList>
    <TestList name="All Loaded Results" id="19431567-8539-422a-85d7-44ee4e166bda" />
    <TestList name="LINQToStackOverflowTests" id="ff6a907d-cc2e-4b81-b878-a28e9d67f5cb" parentListId="8c43106b-9dc1-4907-a29f-aa66a61bf5b6" />
    <TestList name="Lists of Results" id="8c43106b-9dc1-4907-a29f-aa66a61bf5b6" />
  </TestLists>
  <TestEntries>
    <TestEntry testId="cb0b912a-2131-bcbf-92b2-15ef50a50b0b" executionId="65b8383d-31d5-45f7-b65a-817d6aaef617" testListId="46d33d6b-0426-4f3d-b8e7-7fe5652feac5" />
    <TestEntry testId="5f759e25-2f9c-1e7b-2c26-004669feee16" executionId="76117c83-2df1-4407-bfc7-ae72a38f31f7" testListId="46d33d6b-0426-4f3d-b8e7-7fe5652feac5" />
    <TestEntry testId="fcdd9147-68b0-d2c0-e458-2756a9aeba2a" executionId="83055652-d66b-4da5-b500-6bf359b770e1" testListId="46d33d6b-0426-4f3d-b8e7-7fe5652feac5" />
    <TestEntry testId="ff16fa93-924a-62c9-468c-b6bcf2389312" executionId="8bc1a152-591c-4161-9651-557395a355bb" testListId="46d33d6b-0426-4f3d-b8e7-7fe5652feac5" />
    <TestEntry testId="f8b9b16e-aeba-77c4-59dc-3137199c2ea8" executionId="0b011ba1-e8bf-4208-b0ee-7351f74dd881" testListId="46d33d6b-0426-4f3d-b8e7-7fe5652feac5" />
    <TestEntry testId="552d8d2a-dc85-e798-cda8-24a9de9e0296" executionId="41972f8a-39e0-46f7-a540-5ba3b084f98c" testListId="46d33d6b-0426-4f3d-b8e7-7fe5652feac5" />
    <TestEntry testId="8b957deb-fdc6-6c49-e41e-efed14551038" executionId="2e90e63a-d0c6-4284-b23d-fc9280df432d" testListId="46d33d6b-0426-4f3d-b8e7-7fe5652feac5" />
    <TestEntry testId="ff922025-2404-9eaa-dba3-a1d47b5e2d10" executionId="380b3d8a-7f24-4e88-bdb2-d695b7484c49" testListId="46d33d6b-0426-4f3d-b8e7-7fe5652feac5" />
    <TestEntry testId="6cfe3ee6-6688-1c1b-0280-da472351d99c" executionId="1986d882-69f9-438b-ad69-3f0e8250d09d" testListId="46d33d6b-0426-4f3d-b8e7-7fe5652feac5" />
    <TestEntry testId="2ba582ff-9359-e22d-f8ea-c224c5812966" executionId="82bbb2ff-7111-4554-ac89-cfe7d9d70fac" testListId="46d33d6b-0426-4f3d-b8e7-7fe5652feac5" />
  </TestEntries>
  <Results>
    <UnitTestResult executionId="65b8383d-31d5-45f7-b65a-817d6aaef617" testId="cb0b912a-2131-bcbf-92b2-15ef50a50b0b" testName="BuildSortedURLTest" computerName="WXPFPWGLH1" duration="00:00:00.0285851" startTime="2010-04-22T15:43:32.8316574-04:00" endTime="2010-04-22T15:43:33.4097898-04:00" testType="13cdc9d9-ddb5-4fa4-a97d-d965ccfc6d4b" outcome="Passed" testListId="46d33d6b-0426-4f3d-b8e7-7fe5652feac5" relativeResultsDirectory="65b8383d-31d5-45f7-b65a-817d6aaef617">
    </UnitTestResult>
    <UnitTestResult executionId="76117c83-2df1-4407-bfc7-ae72a38f31f7" testId="5f759e25-2f9c-1e7b-2c26-004669feee16" testName="ProcessResultsForInvalidValueTest" computerName="WXPFPWGLH1" duration="00:00:00.0110262" startTime="2010-04-22T15:43:33.4097898-04:00" endTime="2010-04-22T15:43:33.4254150-04:00" testType="13cdc9d9-ddb5-4fa4-a97d-d965ccfc6d4b" outcome="Passed" testListId="46d33d6b-0426-4f3d-b8e7-7fe5652feac5" relativeResultsDirectory="76117c83-2df1-4407-bfc7-ae72a38f31f7">
    </UnitTestResult>
    <UnitTestResult executionId="83055652-d66b-4da5-b500-6bf359b770e1" testId="fcdd9147-68b0-d2c0-e458-2756a9aeba2a" testName="BuildBaseURLTest" computerName="WXPFPWGLH1" duration="00:00:00.0004670" startTime="2010-04-22T15:43:33.4254150-04:00" endTime="2010-04-22T15:43:33.4410402-04:00" testType="13cdc9d9-ddb5-4fa4-a97d-d965ccfc6d4b" outcome="Passed" testListId="46d33d6b-0426-4f3d-b8e7-7fe5652feac5" relativeResultsDirectory="83055652-d66b-4da5-b500-6bf359b770e1">
    </UnitTestResult>
    <UnitTestResult executionId="8bc1a152-591c-4161-9651-557395a355bb" testId="ff16fa93-924a-62c9-468c-b6bcf2389312" testName="BuildOwnerURLTest" computerName="WXPFPWGLH1" duration="00:00:00.0006425" startTime="2010-04-22T15:43:33.4410402-04:00" endTime="2010-04-22T15:43:33.4566654-04:00" testType="13cdc9d9-ddb5-4fa4-a97d-d965ccfc6d4b" outcome="Passed" testListId="46d33d6b-0426-4f3d-b8e7-7fe5652feac5" relativeResultsDirectory="8bc1a152-591c-4161-9651-557395a355bb">
    </UnitTestResult>
    <UnitTestResult executionId="0b011ba1-e8bf-4208-b0ee-7351f74dd881" testId="f8b9b16e-aeba-77c4-59dc-3137199c2ea8" testName="BuildDescendingOrderedURLTest" computerName="WXPFPWGLH1" duration="00:00:00.0009364" startTime="2010-04-22T15:43:33.4566654-04:00" endTime="2010-04-22T15:43:33.4722906-04:00" testType="13cdc9d9-ddb5-4fa4-a97d-d965ccfc6d4b" outcome="Passed" testListId="46d33d6b-0426-4f3d-b8e7-7fe5652feac5" relativeResultsDirectory="0b011ba1-e8bf-4208-b0ee-7351f74dd881">
    </UnitTestResult>
    <UnitTestResult executionId="41972f8a-39e0-46f7-a540-5ba3b084f98c" testId="552d8d2a-dc85-e798-cda8-24a9de9e0296" testName="NullParametersTest" computerName="WXPFPWGLH1" duration="00:00:00.0006512" startTime="2010-04-22T15:43:33.4722906-04:00" endTime="2010-04-22T15:43:33.4879158-04:00" testType="13cdc9d9-ddb5-4fa4-a97d-d965ccfc6d4b" outcome="Passed" testListId="46d33d6b-0426-4f3d-b8e7-7fe5652feac5" relativeResultsDirectory="41972f8a-39e0-46f7-a540-5ba3b084f98c">
    </UnitTestResult>
    <UnitTestResult executionId="2e90e63a-d0c6-4284-b23d-fc9280df432d" testId="8b957deb-fdc6-6c49-e41e-efed14551038" testName="GetParametersTest" computerName="WXPFPWGLH1" duration="00:00:00.0067455" startTime="2010-04-22T15:43:33.5035410-04:00" endTime="2010-04-22T15:43:33.5191662-04:00" testType="13cdc9d9-ddb5-4fa4-a97d-d965ccfc6d4b" outcome="Passed" testListId="46d33d6b-0426-4f3d-b8e7-7fe5652feac5" relativeResultsDirectory="2e90e63a-d0c6-4284-b23d-fc9280df432d">
    </UnitTestResult>
    <UnitTestResult executionId="380b3d8a-7f24-4e88-bdb2-d695b7484c49" testId="ff922025-2404-9eaa-dba3-a1d47b5e2d10" testName="BuildAscendingOrderedURLTest" computerName="WXPFPWGLH1" duration="00:00:00.0005173" startTime="2010-04-22T15:43:33.5191662-04:00" endTime="2010-04-22T15:43:33.5347914-04:00" testType="13cdc9d9-ddb5-4fa4-a97d-d965ccfc6d4b" outcome="Passed" testListId="46d33d6b-0426-4f3d-b8e7-7fe5652feac5" relativeResultsDirectory="380b3d8a-7f24-4e88-bdb2-d695b7484c49">
    </UnitTestResult>
    <UnitTestResult executionId="1986d882-69f9-438b-ad69-3f0e8250d09d" testId="6cfe3ee6-6688-1c1b-0280-da472351d99c" testName="BuildDateRangeURLTest" computerName="WXPFPWGLH1" duration="00:00:00.0045804" startTime="2010-04-22T15:43:33.5660418-04:00" endTime="2010-04-22T15:43:33.5816670-04:00" testType="13cdc9d9-ddb5-4fa4-a97d-d965ccfc6d4b" outcome="Passed" testListId="46d33d6b-0426-4f3d-b8e7-7fe5652feac5" relativeResultsDirectory="1986d882-69f9-438b-ad69-3f0e8250d09d">
    </UnitTestResult>
    <UnitTestResult executionId="82bbb2ff-7111-4554-ac89-cfe7d9d70fac" testId="2ba582ff-9359-e22d-f8ea-c224c5812966" testName="BuildPagedURLTest" computerName="WXPFPWGLH1" duration="00:00:00.0006241" startTime="2010-04-22T15:43:33.5816670-04:00" endTime="2010-04-22T15:43:33.5972922-04:00" testType="13cdc9d9-ddb5-4fa4-a97d-d965ccfc6d4b" outcome="Passed" testListId="46d33d6b-0426-4f3d-b8e7-7fe5652feac5" relativeResultsDirectory="82bbb2ff-7111-4554-ac89-cfe7d9d70fac">
    </UnitTestResult>
  </Results>
</TestRun>