﻿<?xml version="1.0" encoding="UTF-8"?>
<TestRun id="6aadbc30-01fe-416d-a106-d7b89d7695e6" name="XDHSG3S@WXPFPWGLH1 2010-04-22 14:55:56" runUser="CORPDMN\XDHSG3S" xmlns="http://microsoft.com/schemas/VisualStudio/TeamTest/2010">
  <TestSettings name="Local" id="f512af84-f536-48f5-b464-1ea11ababed4">
    <Description>These are default test settings for a local test run.</Description>
    <Deployment enabled="false" runDeploymentRoot="XDHSG3S_WXPFPWGLH1 2010-04-22 14_55_56">
      <DeploymentItem filename="G:\linq2stackoverflow\LINQToStackOverflow\bin\Debug\LINQToStackOverflow.dll" />
      <DeploymentItem filename="C:\Documents and Settings\XDHSG3S.CORPDMN\Desktop\Downloads\JSON.NET\Bin\DotNet20\Newtonsoft.Json.Net20.dll" />
    </Deployment>
    <Execution>
      <TestTypeSpecific />
      <AgentRule name="Execution Agents">
      </AgentRule>
    </Execution>
  </TestSettings>
  <Times creation="2010-04-22T14:55:56.8594285-04:00" queuing="2010-04-22T14:55:57.2031807-04:00" start="2010-04-22T14:55:57.2813062-04:00" finish="2010-04-22T14:55:58.1563118-04:00" />
  <ResultSummary outcome="Failed">
    <Counters total="5" executed="5" passed="4" error="0" failed="1" timeout="0" aborted="0" inconclusive="0" passedButRunAborted="0" notRunnable="0" notExecuted="0" disconnected="0" warning="0" completed="0" inProgress="0" pending="0" />
  </ResultSummary>
  <TestDefinitions>
    <UnitTest name="BuildURLTest" storage="g:\linq2stackoverflow\linqtostackoverflow.test\bin\debug\linqtostackoverflow.test.dll" id="3d6079ea-186d-3097-afb3-0ca9682914d8">
      <Execution id="dfc73c21-4e0f-4b73-9586-33f945163794" />
      <TestMethod codeBase="G:/linq2stackoverflow/LINQToStackOverflow.Test/bin/Debug/LINQToStackOverflow.Test.DLL" adapterTypeName="Microsoft.VisualStudio.TestTools.TestTypes.Unit.UnitTestAdapter, Microsoft.VisualStudio.QualityTools.Tips.UnitTest.Adapter, Version=10.0.0.0, Culture=neutral, PublicKeyToken=b03f5f7f11d50a3a" className="LINQToStackOverflow.Test.BadgeRequestProcessorTest, LINQToStackOverflow.Test, Version=1.0.0.0, Culture=neutral, PublicKeyToken=null" name="BuildURLTest" />
    </UnitTest>
    <UnitTest name="ProcessResultsForAllBadgesRequest" storage="g:\linq2stackoverflow\linqtostackoverflow.test\bin\debug\linqtostackoverflow.test.dll" id="4b698c41-d4bd-048f-9b62-3246825c163c">
      <Execution id="200367ca-37af-423c-8a24-86988202d25d" />
      <TestMethod codeBase="G:/linq2stackoverflow/LINQToStackOverflow.Test/bin/Debug/LINQToStackOverflow.Test.DLL" adapterTypeName="Microsoft.VisualStudio.TestTools.TestTypes.Unit.UnitTestAdapter, Microsoft.VisualStudio.QualityTools.Tips.UnitTest.Adapter, Version=10.0.0.0, Culture=neutral, PublicKeyToken=b03f5f7f11d50a3a" className="LINQToStackOverflow.Test.BadgeRequestProcessorTest, LINQToStackOverflow.Test, Version=1.0.0.0, Culture=neutral, PublicKeyToken=null" name="ProcessResultsForAllBadgesRequest" />
    </UnitTest>
    <UnitTest name="BuildURLWithUserIDTest" storage="g:\linq2stackoverflow\linqtostackoverflow.test\bin\debug\linqtostackoverflow.test.dll" id="47ae6c12-5f21-25e6-5eed-3f08a33cb9bf">
      <Execution id="0abf3825-0455-4f68-8ffa-c48dab9c8e13" />
      <TestMethod codeBase="G:/linq2stackoverflow/LINQToStackOverflow.Test/bin/Debug/LINQToStackOverflow.Test.DLL" adapterTypeName="Microsoft.VisualStudio.TestTools.TestTypes.Unit.UnitTestAdapter, Microsoft.VisualStudio.QualityTools.Tips.UnitTest.Adapter, Version=10.0.0.0, Culture=neutral, PublicKeyToken=b03f5f7f11d50a3a" className="LINQToStackOverflow.Test.BadgeRequestProcessorTest, LINQToStackOverflow.Test, Version=1.0.0.0, Culture=neutral, PublicKeyToken=null" name="BuildURLWithUserIDTest" />
    </UnitTest>
    <UnitTest name="GetParametersTest" storage="g:\linq2stackoverflow\linqtostackoverflow.test\bin\debug\linqtostackoverflow.test.dll" id="99f89090-3b0b-ed83-a891-fa717f0ce756">
      <Execution id="43090495-0db9-4435-8047-d8b05767173a" />
      <TestMethod codeBase="G:/linq2stackoverflow/LINQToStackOverflow.Test/bin/Debug/LINQToStackOverflow.Test.DLL" adapterTypeName="Microsoft.VisualStudio.TestTools.TestTypes.Unit.UnitTestAdapter, Microsoft.VisualStudio.QualityTools.Tips.UnitTest.Adapter, Version=10.0.0.0, Culture=neutral, PublicKeyToken=b03f5f7f11d50a3a" className="LINQToStackOverflow.Test.BadgeRequestProcessorTest, LINQToStackOverflow.Test, Version=1.0.0.0, Culture=neutral, PublicKeyToken=null" name="GetParametersTest" />
    </UnitTest>
    <UnitTest name="ProcessResultsForInvalidValueTest" storage="g:\linq2stackoverflow\linqtostackoverflow.test\bin\debug\linqtostackoverflow.test.dll" id="00ae5712-ff02-6e12-defa-af4a99e66fee">
      <Execution id="7a87b70b-5e30-42bc-bb0e-9c5f047b766f" />
      <TestMethod codeBase="G:/linq2stackoverflow/LINQToStackOverflow.Test/bin/Debug/LINQToStackOverflow.Test.DLL" adapterTypeName="Microsoft.VisualStudio.TestTools.TestTypes.Unit.UnitTestAdapter, Microsoft.VisualStudio.QualityTools.Tips.UnitTest.Adapter, Version=10.0.0.0, Culture=neutral, PublicKeyToken=b03f5f7f11d50a3a" className="LINQToStackOverflow.Test.BadgeRequestProcessorTest, LINQToStackOverflow.Test, Version=1.0.0.0, Culture=neutral, PublicKeyToken=null" name="ProcessResultsForInvalidValueTest" />
    </UnitTest>
  </TestDefinitions>
  <TestLists>
    <TestList name="LINQToStackOverflowTests" id="ff6a907d-cc2e-4b81-b878-a28e9d67f5cb" parentListId="8c43106b-9dc1-4907-a29f-aa66a61bf5b6" />
    <TestList name="All Loaded Results" id="19431567-8539-422a-85d7-44ee4e166bda" />
    <TestList name="Lists of Results" id="8c43106b-9dc1-4907-a29f-aa66a61bf5b6" />
    <TestList name="BadgeTests" id="102ba175-70f8-48ba-8a72-d73287ebcdf1" parentListId="ff6a907d-cc2e-4b81-b878-a28e9d67f5cb">
      <TestLinks>
        <TestLink id="99f89090-3b0b-ed83-a891-fa717f0ce756" name="GetParametersTest" storage="g:\linq2stackoverflow\linqtostackoverflow.test\bin\debug\linqtostackoverflow.test.dll" type="Microsoft.VisualStudio.TestTools.TestTypes.Unit.UnitTestElement, Microsoft.VisualStudio.QualityTools.Tips.UnitTest.ObjectModel, Version=10.0.0.0, Culture=neutral, PublicKeyToken=b03f5f7f11d50a3a" />
        <TestLink id="47ae6c12-5f21-25e6-5eed-3f08a33cb9bf" name="BuildURLWithUserIDTest" storage="g:\linq2stackoverflow\linqtostackoverflow.test\bin\debug\linqtostackoverflow.test.dll" type="Microsoft.VisualStudio.TestTools.TestTypes.Unit.UnitTestElement, Microsoft.VisualStudio.QualityTools.Tips.UnitTest.ObjectModel, Version=10.0.0.0, Culture=neutral, PublicKeyToken=b03f5f7f11d50a3a" />
        <TestLink id="4b698c41-d4bd-048f-9b62-3246825c163c" name="ProcessResultsForAllBadgesRequest" storage="g:\linq2stackoverflow\linqtostackoverflow.test\bin\debug\linqtostackoverflow.test.dll" type="Microsoft.VisualStudio.TestTools.TestTypes.Unit.UnitTestElement, Microsoft.VisualStudio.QualityTools.Tips.UnitTest.ObjectModel, Version=10.0.0.0, Culture=neutral, PublicKeyToken=b03f5f7f11d50a3a" />
        <TestLink id="00ae5712-ff02-6e12-defa-af4a99e66fee" name="ProcessResultsForInvalidValueTest" storage="g:\linq2stackoverflow\linqtostackoverflow.test\bin\debug\linqtostackoverflow.test.dll" type="Microsoft.VisualStudio.TestTools.TestTypes.Unit.UnitTestElement, Microsoft.VisualStudio.QualityTools.Tips.UnitTest.ObjectModel, Version=10.0.0.0, Culture=neutral, PublicKeyToken=b03f5f7f11d50a3a" />
        <TestLink id="3d6079ea-186d-3097-afb3-0ca9682914d8" name="BuildURLTest" storage="g:\linq2stackoverflow\linqtostackoverflow.test\bin\debug\linqtostackoverflow.test.dll" type="Microsoft.VisualStudio.TestTools.TestTypes.Unit.UnitTestElement, Microsoft.VisualStudio.QualityTools.Tips.UnitTest.ObjectModel, Version=10.0.0.0, Culture=neutral, PublicKeyToken=b03f5f7f11d50a3a" />
      </TestLinks>
    </TestList>
  </TestLists>
  <TestEntries>
    <TestEntry testId="3d6079ea-186d-3097-afb3-0ca9682914d8" executionId="dfc73c21-4e0f-4b73-9586-33f945163794" testListId="102ba175-70f8-48ba-8a72-d73287ebcdf1" />
    <TestEntry testId="99f89090-3b0b-ed83-a891-fa717f0ce756" executionId="43090495-0db9-4435-8047-d8b05767173a" testListId="102ba175-70f8-48ba-8a72-d73287ebcdf1" />
    <TestEntry testId="47ae6c12-5f21-25e6-5eed-3f08a33cb9bf" executionId="0abf3825-0455-4f68-8ffa-c48dab9c8e13" testListId="102ba175-70f8-48ba-8a72-d73287ebcdf1" />
    <TestEntry testId="00ae5712-ff02-6e12-defa-af4a99e66fee" executionId="7a87b70b-5e30-42bc-bb0e-9c5f047b766f" testListId="102ba175-70f8-48ba-8a72-d73287ebcdf1" />
    <TestEntry testId="4b698c41-d4bd-048f-9b62-3246825c163c" executionId="200367ca-37af-423c-8a24-86988202d25d" testListId="102ba175-70f8-48ba-8a72-d73287ebcdf1" />
  </TestEntries>
  <Results>
    <UnitTestResult executionId="dfc73c21-4e0f-4b73-9586-33f945163794" testId="3d6079ea-186d-3097-afb3-0ca9682914d8" testName="BuildURLTest" computerName="WXPFPWGLH1" duration="00:00:00.0179941" startTime="2010-04-22T14:55:57.2969313-04:00" endTime="2010-04-22T14:55:57.9531855-04:00" testType="13cdc9d9-ddb5-4fa4-a97d-d965ccfc6d4b" outcome="Passed" testListId="102ba175-70f8-48ba-8a72-d73287ebcdf1" relativeResultsDirectory="dfc73c21-4e0f-4b73-9586-33f945163794">
    </UnitTestResult>
    <UnitTestResult executionId="43090495-0db9-4435-8047-d8b05767173a" testId="99f89090-3b0b-ed83-a891-fa717f0ce756" testName="GetParametersTest" computerName="WXPFPWGLH1" duration="00:00:00.0073802" startTime="2010-04-22T14:55:57.9531855-04:00" endTime="2010-04-22T14:55:57.9688106-04:00" testType="13cdc9d9-ddb5-4fa4-a97d-d965ccfc6d4b" outcome="Passed" testListId="102ba175-70f8-48ba-8a72-d73287ebcdf1" relativeResultsDirectory="43090495-0db9-4435-8047-d8b05767173a">
    </UnitTestResult>
    <UnitTestResult executionId="0abf3825-0455-4f68-8ffa-c48dab9c8e13" testId="47ae6c12-5f21-25e6-5eed-3f08a33cb9bf" testName="BuildURLWithUserIDTest" computerName="WXPFPWGLH1" duration="00:00:00.0004858" startTime="2010-04-22T14:55:57.9688106-04:00" endTime="2010-04-22T14:55:57.9844357-04:00" testType="13cdc9d9-ddb5-4fa4-a97d-d965ccfc6d4b" outcome="Passed" testListId="102ba175-70f8-48ba-8a72-d73287ebcdf1" relativeResultsDirectory="0abf3825-0455-4f68-8ffa-c48dab9c8e13">
    </UnitTestResult>
    <UnitTestResult executionId="7a87b70b-5e30-42bc-bb0e-9c5f047b766f" testId="00ae5712-ff02-6e12-defa-af4a99e66fee" testName="ProcessResultsForInvalidValueTest" computerName="WXPFPWGLH1" duration="00:00:00.0142115" startTime="2010-04-22T14:55:57.9844357-04:00" endTime="2010-04-22T14:55:58.0156859-04:00" testType="13cdc9d9-ddb5-4fa4-a97d-d965ccfc6d4b" outcome="Passed" testListId="102ba175-70f8-48ba-8a72-d73287ebcdf1" relativeResultsDirectory="7a87b70b-5e30-42bc-bb0e-9c5f047b766f">
    </UnitTestResult>
    <UnitTestResult executionId="200367ca-37af-423c-8a24-86988202d25d" testId="4b698c41-d4bd-048f-9b62-3246825c163c" testName="ProcessResultsForAllBadgesRequest" computerName="WXPFPWGLH1" duration="00:00:00.1117954" startTime="2010-04-22T14:55:58.0156859-04:00" endTime="2010-04-22T14:55:58.1406867-04:00" testType="13cdc9d9-ddb5-4fa4-a97d-d965ccfc6d4b" outcome="Failed" testListId="102ba175-70f8-48ba-8a72-d73287ebcdf1" relativeResultsDirectory="200367ca-37af-423c-8a24-86988202d25d">
      <Output>
        <ErrorInfo>
          <Message>Assert.AreEqual failed. Expected:&lt;44&gt;. Actual:&lt;30&gt;. </Message>
          <StackTrace>   at LINQToStackOverflow.Test.BadgeRequestProcessorTest.ProcessResultsForAllBadgesRequest() in G:\linq2stackoverflow\LINQToStackOverflow.Test\BadgeRequestProcessorTest.cs:line 74
</StackTrace>
        </ErrorInfo>
      </Output>
    </UnitTestResult>
  </Results>
</TestRun>